{
    "dev": {
        "awscloudformation": {
            "AuthRoleName": "amplify-donevatuguita-dev-114434-authRole",
            "UnauthRoleArn": "arn:aws:iam::740855914190:role/amplify-donevatuguita-dev-114434-unauthRole",
            "AuthRoleArn": "arn:aws:iam::740855914190:role/amplify-donevatuguita-dev-114434-authRole",
            "Region": "us-east-1",
            "DeploymentBucketName": "amplify-donevatuguita-dev-114434-deployment",
            "UnauthRoleName": "amplify-donevatuguita-dev-114434-unauthRole",
            "StackName": "amplify-donevatuguita-dev-114434",
            "StackId": "arn:aws:cloudformation:us-east-1:740855914190:stack/amplify-donevatuguita-dev-114434/c4636660-9783-11ea-9b40-12cf2806950f",
            "AmplifyAppId": "d2lg1bdojw02s8"
        }
    }
}